Principle Components | SGS
…
## $PC1
## [1] -5.3840455 -3.4519431 -1.5198408  0.4122616  2.3443639  4.2764663  6.2085686
## [8]  8.1406710
## 
## $PC2
## [1] -4.1297172 -1.8145574  0.5006024  2.8157622  5.1309220  7.4460818

## # A tibble: 35 x 3
##    strata count    frac
##    <ord>  <dbl>   <dbl>
##  1 11         0 0      
##  2 12      5467 0.183  
##  3 13       130 0.00435
##  4 14         0 0      
##  5 15         0 0      
##  6 21         0 0      
##  7 22      3183 0.106  
##  8 23      1619 0.0541 
##  9 24         0 0      
## 10 25         0 0      
## # ... with 25 more rows

##      [,1] [,2] [,3] [,4] [,5] [,6] [,7]
## [1,]   11   21   31   41   51   61   71
## [2,]   12   22   32   42   52   62   72
## [3,]   13   23   33   43   53   63   73
## [4,]   14   24   34   44   54   64   74
## [5,]   15   25   35   45   55   65   75

We can use the breaks returned by the getPCAstrata function to get the strata of the existing set of plots:

## [1] 42 12 54 52 54
## 35 Levels: 11 < 12 < 13 < 14 < 15 < 21 < 22 < 23 < 24 < 25 < 31 < 32 < ... < 75

## # A tibble: 35 x 3
##    strata count  frac
##    <ord>  <dbl> <dbl>
##  1 11         0   0  
##  2 12         1   0.2
##  3 13         0   0  
##  4 14         0   0  
##  5 15         0   0  
##  6 21         0   0  
##  7 22         0   0  
##  8 23         0   0  
##  9 24         0   0  
## 10 25         0   0  
## # ... with 25 more rows
…
